<?xml version="1.0" encoding="UTF-8"?>
<!-- Created with Inkscape (http://www.inkscape.org/) -->
<svg id="svg2" width="733.95" height="515.71" version="1.1" viewBox="0 0 733.95 515.71" xml:space="preserve" xmlns="http://www.w3.org/2000/svg"><g id="g10" transform="matrix(1.3333 0 0 -1.3333 0 515.71)"><g id="g12" transform="scale(.1)"><path id="path14" d="m403.63 1032 224.25 191.45v128.98l-237.42-192.26-214.02 200.13v-145.49l194.73-182.03c15.652-16.4 32.461-0.78 32.461-0.78" fill="#66412a"/><path id="path16" d="m3238.1 1356.6v-465.72h111.87v303.54c-0.65 6.87-1.44 14.27-2.37 22.28 0.79-0.76 1.58-1.5 2.37-2.24v124.59l-7.61 17.55zm530.47-244.59c0-14.45 2.13-41.52 5.33-80.33-19.14 18.95-40.4 35.2-62.73 50.55l-289.98 206.17v-129.53l375.03-267.99h87.17v465.72h-114.82zm-1143.9 244.59-310.42-465.72h127.57l63.77 101.99h4.48l49.74 83.952 122.26 189.53 118.01-189.53h-152l-56.12-83.952h261.27l65.91-101.99h143.51l-314.67 465.72zm2468.4-378.16v378.16h-127.57v-465.72h538.98v87.558zm-549.61 115.53v79.41h-130.71v-79.41zm-253 183.2h433.73v79.43h-561.3v-465.72h566.62v87.558h-439.05zm-4184.3 79.43h-106.26v-465.72h104.93l1.699 461.9zm2231 0h-632.54v-83.04h251.95v-0.51h127.57v0.51h253.02zm-1633.9-10.07v-455.65h111.09v465.72h-110.8zm1253.3-455.65h127.57v296.02h-127.57zm-668.06 465.72-310.42-465.72h127.57l63.78 101.99h4.6l49.62 83.952 122.27 189.53 117.98-189.53h-151.85l-56.12-83.952h261.14l65.91-101.99h143.51l-314.68 465.72h-123.31" fill="#66412a"/><path id="path18" d="m1353.2 1682.9c45.99 0 76.3 9.36 90.71 28.05 14.39 18.69 21.59 43.96 21.59 75.66v1960.7c0 31.59-7.94 56.86-23.74 75.55-2.54 2.99-5.67 5.66-9.07 8.18h-81.33zm2667.4 2148.2c-3.36-2.52-6.47-5.19-9-8.18-15.92-18.69-23.75-43.96-23.75-75.55v-1960.7c0-31.7 7.83-56.97 23.75-75.66 14.35-16.99 42.51-26.17 84.27-27.74v2147.9h-75.27" fill="#66412a" fill-rule="evenodd"/><path id="path20" d="m692.05 663.63h190.15v-43.777h-134.3v-33.961h128.02v-42.231h-128.02v-62.129h-55.848v182.1" fill="#7eb448"/><path id="path22" d="m1170.4 562.76c0-26.403 5.53-36.461 31.94-36.461h71.44c26.4 0 31.93 10.058 31.93 36.461v19.609c0 22.66-5.53 36.488-34.96 36.488h-65.4c-29.42 0-34.95-13.828-34.95-36.488zm-57.35 37c0 53.297 29.93 65.886 80.23 65.886h89.55c50.3 0 80.24-12.589 80.24-65.886v-54.364c0-53.289-29.94-65.886-80.24-65.886h-89.55c-50.3 0-80.23 12.597-80.23 65.886v54.364" fill="#7eb448"/><path id="path24" d="m1598 663.63h55.85v-105.15c0-23.14 8.3-32.179 31.18-32.179h55.33c22.89 0 31.19 9.039 31.19 32.179v105.15h55.84v-117.2c0-45.289-23.39-66.918-74.71-66.918h-79.98c-51.3 0-74.7 21.629-74.7 66.918v117.2" fill="#7eb448"/><path id="path26" d="m2066.4 663.63h86.53l104.88-132.3h0.5v132.3h55.85v-182.1h-86.54l-104.88 132.3h-0.5v-132.3h-55.84v182.1" fill="#7eb448"/><path id="path28" d="m2610.9 528.32h99.1c23.89 0 33.2 6.782 33.2 32.692v24.648c0 25.91-9.31 32.692-33.2 32.692h-99.1zm-55.83 135.31h168.52c55.83 0 75.45-18.348 75.45-63.391v-55.316c0-45.043-19.62-63.391-75.45-63.391h-168.52v182.1" fill="#7eb448"/><path id="path30" d="m3115.7 552.97h71.45l-36.21 68.39zm-0.99 110.66h72.69l100.11-182.1h-62.13l-17.35 32.18h-113.19l-16.35-32.18h-62.38l98.6 182.1" fill="#7eb448"/><path id="path32" d="m3476.7 663.63h212.79v-45.277h-78.47v-136.82h-55.84v136.82h-78.48v45.277" fill="#7eb448"/><path id="path34" d="m3918.1 663.63h55.82v-182.1h-55.82v182.1" fill="#7eb448"/><path id="path36" d="m4269.2 562.76c0-26.403 5.53-36.461 31.93-36.461h71.45c26.4 0 31.93 10.058 31.93 36.461v19.609c0 22.66-5.53 36.488-34.97 36.488h-65.39c-29.42 0-34.95-13.828-34.95-36.488zm-57.36 37c0 53.297 29.94 65.886 80.24 65.886h89.55c50.3 0 80.23-12.589 80.23-65.886v-54.364c0-53.289-29.93-65.886-80.23-65.886h-89.55c-50.3 0-80.24 12.597-80.24 65.886v54.364" fill="#7eb448"/><path id="path38" d="m4696.8 663.63h86.53l104.88-132.3h0.5v132.3h55.84v-182.1h-86.53l-104.89 132.3h-0.49v-132.3h-55.84v182.1" fill="#7eb448"/><g id="g40" transform="scale(10)" fill="#66412a" font-family="Eurostile" font-weight="bold"><text id="text44" transform="matrix(1 0 0 -1 66.948 7.7129)" font-size="25.289px"><tspan id="tspan42" x="0 34.442898" y="0">GR</tspan></text>
<text id="text48" transform="matrix(1 0 0 -1 135.2 7.7129)" font-size="23.14px"><tspan id="tspan46" x="0 32.094696 65.300308 92.836418 121.50684 154.18015 172.55315 200.08928" y="0">ANTED TO</tspan></text>
<text id="text52" transform="matrix(1 0 0 -1 388.04 7.7129)" font-size="25.289px"><tspan id="tspan50" x="0 34.443401 52.043964 86.487366" y="0">GIVE</tspan></text>
</g><path id="path54" d="m3534.9 1677.8v51.8c48.89 0 81.21 9.35 97.13 28.04 15.8 18.69 23.75 43.97 23.75 75.67v1706l-12.89 8.59-919.1-1826.9-923.15 1826.9-4.29-8.59v-1706c-2.9-31.7 2.92-56.98 17.31-75.67 14.4-18.69 41.68-28.04 81.98-28.04v-51.8" fill="#66412a" fill-rule="evenodd"/><path id="path56" d="m2718.2 2402 729.88 1382.1c2.79 8.6 6.44 17.31 10.74 25.9s6.56 17.3 6.56 25.9c0 12.19-5.76 22.81-17.07 31.93h-1435c-10.85-9.04-16.37-21.07-16.37-36.23 0-17.3 5.69-33.08 17.3-47.5l703.98-1382.1" fill="#7eb448" fill-rule="evenodd"/></g></g></svg>
